\relax 
\providecommand\hyper@newdestlabel[2]{}
\providecommand\HyperFirstAtBeginDocument{\AtBeginDocument}
\HyperFirstAtBeginDocument{\ifx\hyper@anchor\@undefined
\global\let\oldcontentsline\contentsline
\gdef\contentsline#1#2#3#4{\oldcontentsline{#1}{#2}{#3}}
\global\let\oldnewlabel\newlabel
\gdef\newlabel#1#2{\newlabelxx{#1}#2}
\gdef\newlabelxx#1#2#3#4#5#6{\oldnewlabel{#1}{{#2}{#3}}}
\AtEndDocument{\ifx\hyper@anchor\@undefined
\let\contentsline\oldcontentsline
\let\newlabel\oldnewlabel
\fi}
\fi}
\global\let\hyper@last\relax 
\gdef\HyperFirstAtBeginDocument#1{#1}
\providecommand*\HyPL@Entry[1]{}
\HyPL@Entry{0<</S/D>>}
\select@language{english}
\@writefile{toc}{\select@language{english}}
\@writefile{lof}{\select@language{english}}
\@writefile{lot}{\select@language{english}}
\HyPL@Entry{1<</P(0)>>}
\HyPL@Entry{2<</S/r>>}
\citation{cve}
\HyPL@Entry{6<</S/D>>}
\@writefile{toc}{\contentsline {chapter}{\numberline {Chapter 1}Introduction}{1}{chapter.1}}
\@writefile{lof}{\addvspace {10\p@ }}
\@writefile{lot}{\addvspace {10\p@ }}
\citation{lampson1974protection}
\@writefile{lof}{\contentsline {figure}{\numberline {1.1}{\ignorespaces The number of kernel privilege escalation\relax }}{2}{figure.caption.2}}
\providecommand*\caption@xref[2]{\@setref\relax\@undefined{#1}}
\newlabel{fig:escalation}{{1.1}{2}{The number of kernel privilege escalation\relax }{figure.caption.2}{}}
\citation{seccomp}
\citation{salaun2018file}
\citation{filemode}
\citation{heuser2014asm}
\citation{bates2015trustworthy}
\@writefile{toc}{\contentsline {section}{\numberline {1.1}Structure of the thesis}{5}{section.1.1}}
\citation{morris2002linux}
\citation{mccanne1993bsd}
\citation{acl}
\citation{mac}
\@writefile{toc}{\contentsline {chapter}{\numberline {Chapter 2}Background}{6}{chapter.2}}
\@writefile{lof}{\addvspace {10\p@ }}
\@writefile{lot}{\addvspace {10\p@ }}
\newlabel{sec:background-chap}{{2}{6}{Background}{chapter.2}{}}
\@writefile{toc}{\contentsline {section}{\numberline {2.1}Traditional Access Control Model}{6}{section.2.1}}
\@writefile{toc}{\contentsline {subsection}{\numberline {2.1.1}ACL}{6}{subsection.2.1.1}}
\@writefile{toc}{\contentsline {subsection}{\numberline {2.1.2}Capability}{6}{subsection.2.1.2}}
\citation{nakamura}
\citation{national1987guide}
\citation{downs1985issues}
\citation{mao2009trojan}
\citation{latham1986department}
\citation{ferraiolo1995role}
\@writefile{toc}{\contentsline {section}{\numberline {2.2}Nowadays Access Control Model}{7}{section.2.2}}
\@writefile{toc}{\contentsline {subsection}{\numberline {2.2.1}MAC}{7}{subsection.2.2.1}}
\@writefile{toc}{\contentsline {subsection}{\numberline {2.2.2}DAC}{7}{subsection.2.2.2}}
\@writefile{toc}{\contentsline {subsection}{\numberline {2.2.3}RBAC}{8}{subsection.2.2.3}}
\@writefile{lof}{\contentsline {figure}{\numberline {2.1}{\ignorespaces Role-based Access Control\relax }}{8}{figure.caption.3}}
\newlabel{fig:rbac}{{2.1}{8}{Role-based Access Control\relax }{figure.caption.3}{}}
\citation{selinux}
\citation{morris2002linux}
\citation{wright2002kroahhartman}
\citation{loadable}
\@writefile{toc}{\contentsline {section}{\numberline {2.3}LSM}{9}{section.2.3}}
\citation{smalley2002configuring}
\@writefile{lof}{\contentsline {figure}{\numberline {2.2}{\ignorespaces LSM work mechanism\relax }}{10}{figure.caption.4}}
\newlabel{fig:lsm}{{2.2}{10}{LSM work mechanism\relax }{figure.caption.4}{}}
\@writefile{toc}{\contentsline {subsection}{\numberline {2.3.1}SELinux}{10}{subsection.2.3.1}}
\@writefile{toc}{\contentsline {subsection}{\numberline {2.3.2}AppArmor}{11}{subsection.2.3.2}}
\citation{mccanne1993bsd}
\citation{peter2001integrating}
\@writefile{toc}{\contentsline {subsection}{\numberline {2.3.3}yama}{12}{subsection.2.3.3}}
\@writefile{toc}{\contentsline {section}{\numberline {2.4}BPF}{12}{section.2.4}}
\@writefile{toc}{\contentsline {subsection}{\numberline {2.4.1}Traditional BPF design}{13}{subsection.2.4.1}}
\@writefile{lof}{\contentsline {figure}{\numberline {2.3}{\ignorespaces tcpdump workflow\relax }}{13}{figure.caption.5}}
\newlabel{fig:tcpdump_workflow}{{2.3}{13}{tcpdump workflow\relax }{figure.caption.5}{}}
\citation{baldi2005framework}
\@writefile{lot}{\contentsline {table}{\numberline {2.1}{\ignorespaces Instruction set of cBPF\relax }}{15}{table.caption.6}}
\newlabel{tab:bpf-instruction-set}{{2.1}{15}{Instruction set of cBPF\relax }{table.caption.6}{}}
\@writefile{toc}{\contentsline {subsection}{\numberline {2.4.2}JIT compiler for BPF}{15}{subsection.2.4.2}}
\@writefile{lot}{\contentsline {table}{\numberline {2.2}{\ignorespaces Architecture that support BPF JIT compilation\relax }}{16}{table.caption.7}}
\newlabel{tab:bpf-jit-compile}{{2.2}{16}{Architecture that support BPF JIT compilation\relax }{table.caption.7}{}}
\@writefile{toc}{\contentsline {subsection}{\numberline {2.4.3}Interacting with user space:map}{16}{subsection.2.4.3}}
\@writefile{lof}{\contentsline {figure}{\numberline {2.4}{\ignorespaces BPF Map Mechanism\relax }}{16}{figure.caption.8}}
\newlabel{fig:bpf_map}{{2.4}{16}{BPF Map Mechanism\relax }{figure.caption.8}{}}
\citation{sockex1}
\citation{seccomp}
\@writefile{toc}{\contentsline {subsection}{\numberline {2.4.4}Verifier}{17}{subsection.2.4.4}}
\citation{bcc}
\@writefile{toc}{\contentsline {subsection}{\numberline {2.4.5}BCC: BPF compiler collection}{18}{subsection.2.4.5}}
\@writefile{toc}{\contentsline {subsection}{\numberline {2.4.6}BPF work mechanism}{19}{subsection.2.4.6}}
\@writefile{lof}{\contentsline {figure}{\numberline {2.5}{\ignorespaces BPF mechanism\relax }}{19}{figure.caption.9}}
\newlabel{fig:bpf_mechanism}{{2.5}{19}{BPF mechanism\relax }{figure.caption.9}{}}
\@writefile{toc}{\contentsline {chapter}{\numberline {Chapter 3}Design}{20}{chapter.3}}
\@writefile{lof}{\addvspace {10\p@ }}
\@writefile{lot}{\addvspace {10\p@ }}
\newlabel{sec:design-chap}{{3}{20}{Design}{chapter.3}{}}
\citation{morris2002linux}
\citation{smalley2001linux}
\@writefile{lof}{\contentsline {figure}{\numberline {3.1}{\ignorespaces BPF\_LSM architecture\relax }}{21}{figure.caption.10}}
\newlabel{fig:bpf_lsm_arc}{{3.1}{21}{BPF\_LSM architecture\relax }{figure.caption.10}{}}
\citation{tail}
\citation{xattracl}
\@writefile{toc}{\contentsline {chapter}{\numberline {Chapter 4}Implementation}{24}{chapter.4}}
\@writefile{lof}{\addvspace {10\p@ }}
\@writefile{lot}{\addvspace {10\p@ }}
\newlabel{sec:implementation-chap}{{4}{24}{Implementation}{chapter.4}{}}
\@writefile{toc}{\contentsline {section}{\numberline {4.1}User level implementation}{24}{section.4.1}}
\newlabel{listing:file-attribute-assignment}{{4.1}{24}{file attributes assignments in user level}{lstlisting.4.1}{}}
\@writefile{lol}{\contentsline {lstlisting}{\numberline {4.1}file attributes assignments in user level}{24}{lstlisting.4.1}}
\citation{allen1970control}
\newlabel{listing:policy-sample}{{4.2}{25}{user defined security policy sample}{lstlisting.4.2}{}}
\@writefile{lol}{\contentsline {lstlisting}{\numberline {4.2}user defined security policy sample}{25}{lstlisting.4.2}}
\newlabel{listing:bpf-verifier-ops}{{4.3}{25}{eBPF verifier operation}{lstlisting.4.3}{}}
\@writefile{lol}{\contentsline {lstlisting}{\numberline {4.3}eBPF verifier operation}{25}{lstlisting.4.3}}
\@writefile{toc}{\contentsline {section}{\numberline {4.2}Kernel level implementation}{25}{section.4.2}}
\@writefile{toc}{\contentsline {subsection}{\numberline {4.2.1}Attribute Setting}{26}{subsection.4.2.1}}
\newlabel{listing:design-task-security}{{4.4}{26}{struct task\_security}{lstlisting.4.4}{}}
\@writefile{lol}{\contentsline {lstlisting}{\numberline {4.4}struct task\_security}{26}{lstlisting.4.4}}
\newlabel{listing:implement-task-initial}{{4.5}{26}{task attribute initialization}{lstlisting.4.5}{}}
\@writefile{lol}{\contentsline {lstlisting}{\numberline {4.5}task attribute initialization}{26}{lstlisting.4.5}}
\@writefile{toc}{\contentsline {subsection}{\numberline {4.2.2}Extract Attribute Information}{27}{subsection.4.2.2}}
\citation{mccanne1993bsd}
\citation{usexattr}
\newlabel{listing:design-struct-cred}{{4.6}{28}{struct cred}{lstlisting.4.6}{}}
\@writefile{lol}{\contentsline {lstlisting}{\numberline {4.6}struct cred}{28}{lstlisting.4.6}}
\newlabel{listing:file-attribute-extract}{{4.7}{28}{file attribute extraction code}{lstlisting.4.7}{}}
\@writefile{lol}{\contentsline {lstlisting}{\numberline {4.7}file attribute extraction code}{28}{lstlisting.4.7}}
\@writefile{toc}{\contentsline {subsection}{\numberline {4.2.3}Transmit Attribute Information}{29}{subsection.4.2.3}}
\newlabel{listing:security-content}{{4.8}{29}{security content}{lstlisting.4.8}{}}
\@writefile{lol}{\contentsline {lstlisting}{\numberline {4.8}security content}{29}{lstlisting.4.8}}
\newlabel{listing:implement-hook-example}{{4.9}{29}{hook function used by BPF\_LSM}{lstlisting.4.9}{}}
\@writefile{lol}{\contentsline {lstlisting}{\numberline {4.9}hook function used by BPF\_LSM}{29}{lstlisting.4.9}}
\@writefile{toc}{\contentsline {subsection}{\numberline {4.2.4}Decision Making}{30}{subsection.4.2.4}}
\newlabel{listing:bpf-attach}{{4.10}{30}{eBPF program attachment}{lstlisting.4.10}{}}
\@writefile{lol}{\contentsline {lstlisting}{\numberline {4.10}eBPF program attachment}{30}{lstlisting.4.10}}
\@writefile{toc}{\contentsline {chapter}{\numberline {Chapter 5}Evaluation}{31}{chapter.5}}
\@writefile{lof}{\addvspace {10\p@ }}
\@writefile{lot}{\addvspace {10\p@ }}
\newlabel{sec:evaluation-chap}{{5}{31}{Evaluation}{chapter.5}{}}
\@writefile{toc}{\contentsline {section}{\numberline {5.1}Analysis of Performance}{31}{section.5.1}}
\@writefile{lof}{\contentsline {figure}{\numberline {5.1}{\ignorespaces Performance comparison among our BPF\_LSM, traditional LSMs and no LSM implemented for multiple file access operations\relax }}{32}{figure.caption.11}}
\newlabel{fig:evaluation}{{5.1}{32}{Performance comparison among our BPF\_LSM, traditional LSMs and no LSM implemented for multiple file access operations\relax }{figure.caption.11}{}}
\@writefile{toc}{\contentsline {section}{\numberline {5.2}Analysis of Usability}{33}{section.5.2}}
\@writefile{toc}{\contentsline {section}{\numberline {5.3}Analysis of Security}{33}{section.5.3}}
\@writefile{toc}{\contentsline {subsection}{\numberline {5.3.1}Attack surface}{33}{subsection.5.3.1}}
\citation{checkoway2010return}
\citation{reshetova2017randomization}
\citation{jit}
\@writefile{toc}{\contentsline {subsection}{\numberline {5.3.2}Optional use of JIT for eBPF}{34}{subsection.5.3.2}}
\@writefile{toc}{\contentsline {subsection}{\numberline {5.3.3}Protection against escalation of privileges via supervised process}{34}{subsection.5.3.3}}
\@writefile{toc}{\contentsline {subsection}{\numberline {5.3.4}Protection of subjects}{35}{subsection.5.3.4}}
\@writefile{toc}{\contentsline {subsection}{\numberline {5.3.5}Protection against interfering other access controls}{35}{subsection.5.3.5}}
\@writefile{toc}{\contentsline {section}{\numberline {5.4}Summary}{36}{section.5.4}}
\citation{wei2005tocttou}
\@writefile{toc}{\contentsline {chapter}{\numberline {Chapter 6}Related Work}{38}{chapter.6}}
\@writefile{lof}{\addvspace {10\p@ }}
\@writefile{lot}{\addvspace {10\p@ }}
\newlabel{sec:relatedwork-chap}{{6}{38}{Related Work}{chapter.6}{}}
\@writefile{toc}{\contentsline {section}{\numberline {6.1}seccomp}{38}{section.6.1}}
\newlabel{sec:relatedwork-seccomp}{{6.1}{38}{seccomp}{section.6.1}{}}
\citation{sara}
\@writefile{toc}{\contentsline {section}{\numberline {6.2}Landlock}{39}{section.6.2}}
\newlabel{sec:relatedwork-landlock}{{6.2}{39}{Landlock}{section.6.2}{}}
\citation{tianlbm}
\citation{ahmed2018inkev}
\citation{morris2002linux}
\citation{sailer2004design}
\citation{heuser2014asm}
\citation{vahldiek2015guardat}
\@writefile{toc}{\contentsline {section}{\numberline {6.3}S.A.R.A}{40}{section.6.3}}
\newlabel{sec:relatedwork-sara}{{6.3}{40}{S.A.R.A}{section.6.3}{}}
\@writefile{toc}{\contentsline {section}{\numberline {6.4}Other related work based on LSM framework and dynamic tracing}{40}{section.6.4}}
\@writefile{toc}{\contentsline {chapter}{\numberline {Chapter 7}Conclusion}{41}{chapter.7}}
\@writefile{lof}{\addvspace {10\p@ }}
\@writefile{lot}{\addvspace {10\p@ }}
\newlabel{sec:conclusion-chap}{{7}{41}{Conclusion}{chapter.7}{}}
\@writefile{toc}{\contentsline {section}{\numberline {7.1}Future Work}{41}{section.7.1}}
\bibstyle{plain}
\bibdata{References}
\@writefile{toc}{\contentsline {chapter}{Acknowledgements}{43}{chapter*.12}}
\@writefile{lof}{\addvspace {10\p@ }}
\@writefile{lot}{\addvspace {10\p@ }}
\bibcite{acl}{1}
\bibcite{bcc}{2}
\bibcite{usexattr}{3}
\bibcite{xattracl}{4}
\bibcite{sara}{5}
\bibcite{sockex1}{6}
\bibcite{mac}{7}
\bibcite{selinux}{8}
\bibcite{ahmed2018inkev}{9}
\bibcite{allen1970control}{10}
\bibcite{baldi2005framework}{11}
\bibcite{bates2015trustworthy}{12}
\bibcite{jit}{13}
\bibcite{checkoway2010return}{14}
\bibcite{loadable}{15}
\bibcite{downs1985issues}{16}
\bibcite{seccomp}{17}
\bibcite{filemode}{18}
\@writefile{toc}{\contentsline {chapter}{Bibliography}{44}{chapter*.13}}
\@writefile{lof}{\addvspace {10\p@ }}
\@writefile{lot}{\addvspace {10\p@ }}
\bibcite{ferraiolo1995role}{19}
\bibcite{heuser2014asm}{20}
\bibcite{lampson1974protection}{21}
\bibcite{latham1986department}{22}
\bibcite{mao2009trojan}{23}
\bibcite{mccanne1993bsd}{24}
\bibcite{morris2002linux}{25}
\bibcite{peter2001integrating}{26}
\bibcite{reshetova2017randomization}{27}
\bibcite{sailer2004design}{28}
\bibcite{salaun2018file}{29}
\bibcite{smalley2002configuring}{30}
\bibcite{smalley2001linux}{31}
\bibcite{tail}{32}
\bibcite{tianlbm}{33}
\bibcite{national1987guide}{34}
\bibcite{vahldiek2015guardat}{35}
\bibcite{cve}{36}
\bibcite{wei2005tocttou}{37}
\bibcite{wright2002kroahhartman}{38}
\bibcite{nakamura}{39}
\gdef \@lastoftotalpage{0}
