\relax 
\providecommand\hyper@newdestlabel[2]{}
\providecommand\HyperFirstAtBeginDocument{\AtBeginDocument}
\HyperFirstAtBeginDocument{\ifx\hyper@anchor\@undefined
\global\let\oldcontentsline\contentsline
\gdef\contentsline#1#2#3#4{\oldcontentsline{#1}{#2}{#3}}
\global\let\oldnewlabel\newlabel
\gdef\newlabel#1#2{\newlabelxx{#1}#2}
\gdef\newlabelxx#1#2#3#4#5#6{\oldnewlabel{#1}{{#2}{#3}}}
\AtEndDocument{\ifx\hyper@anchor\@undefined
\let\contentsline\oldcontentsline
\let\newlabel\oldnewlabel
\fi}
\fi}
\global\let\hyper@last\relax 
\gdef\HyperFirstAtBeginDocument#1{#1}
\providecommand*\HyPL@Entry[1]{}
\HyPL@Entry{0<</S/D>>}
\@writefile{toc}{\contentsline {chapter}{\numberline {Chapter 1}Evaluation}{1}{chapter.1}}
\@writefile{lof}{\addvspace {10\p@ }}
\@writefile{lot}{\addvspace {10\p@ }}
\newlabel{sec:evaluation-chap}{{1}{1}{Evaluation}{chapter.1}{}}
\@writefile{toc}{\contentsline {section}{\numberline {1.1}Analysis of Performance}{1}{section.1.1}}
\@writefile{lof}{\contentsline {figure}{\numberline {1.1}{\ignorespaces Performance comparison among our BPF\_LSM, traditional LSMs and no LSM implemented for multiple file access operations\relax }}{2}{figure.caption.1}}
\providecommand*\caption@xref[2]{\@setref\relax\@undefined{#1}}
\newlabel{fig:evaluation}{{1.1}{2}{Performance comparison among our BPF\_LSM, traditional LSMs and no LSM implemented for multiple file access operations\relax }{figure.caption.1}{}}
\@writefile{toc}{\contentsline {section}{\numberline {1.2}Analysis of Usability}{2}{section.1.2}}
\@writefile{toc}{\contentsline {section}{\numberline {1.3}Analysis of Security}{3}{section.1.3}}
\@writefile{toc}{\contentsline {subsection}{\numberline {1.3.1}Attack surface}{3}{subsection.1.3.1}}
\citation{checkoway2010return}
\citation{reshetova2017randomization}
\citation{jit}
\@writefile{toc}{\contentsline {subsection}{\numberline {1.3.2}Optional use of JIT for eBPF}{4}{subsection.1.3.2}}
\@writefile{toc}{\contentsline {subsection}{\numberline {1.3.3}Protection against escalation of privileges via supervised process}{4}{subsection.1.3.3}}
\@writefile{toc}{\contentsline {subsection}{\numberline {1.3.4}Protection of subjects}{5}{subsection.1.3.4}}
\@writefile{toc}{\contentsline {subsection}{\numberline {1.3.5}Protection against interfering other access controls}{5}{subsection.1.3.5}}
\@writefile{toc}{\contentsline {section}{\numberline {1.4}Summary}{6}{section.1.4}}
\gdef \@lastoftotalpage{0}
