\relax 
\providecommand\hyper@newdestlabel[2]{}
\providecommand\HyperFirstAtBeginDocument{\AtBeginDocument}
\HyperFirstAtBeginDocument{\ifx\hyper@anchor\@undefined
\global\let\oldcontentsline\contentsline
\gdef\contentsline#1#2#3#4{\oldcontentsline{#1}{#2}{#3}}
\global\let\oldnewlabel\newlabel
\gdef\newlabel#1#2{\newlabelxx{#1}#2}
\gdef\newlabelxx#1#2#3#4#5#6{\oldnewlabel{#1}{{#2}{#3}}}
\AtEndDocument{\ifx\hyper@anchor\@undefined
\let\contentsline\oldcontentsline
\let\newlabel\oldnewlabel
\fi}
\fi}
\global\let\hyper@last\relax 
\gdef\HyperFirstAtBeginDocument#1{#1}
\providecommand*\HyPL@Entry[1]{}
\HyPL@Entry{0<</S/D>>}
\select@language{english}
\@writefile{toc}{\select@language{english}}
\@writefile{lof}{\select@language{english}}
\@writefile{lot}{\select@language{english}}
\@writefile{toc}{\contentsline {chapter}{\numberline {AppendixA}Adding BPF dependencies}{1}{appendix.A}}
\@writefile{lof}{\addvspace {10\p@ }}
\@writefile{lot}{\addvspace {10\p@ }}
\newlabel{sec:appendix-bios}{{A}{1}{Adding BPF dependencies}{appendix.A}{}}
\@writefile{toc}{\contentsline {section}{\numberline {A.1}Compiling Requirement}{1}{section.A.1}}
\@writefile{toc}{\contentsline {section}{\numberline {A.2}Configuration}{1}{section.A.2}}
\@writefile{toc}{\contentsline {section}{\numberline {A.3}Build Method}{2}{section.A.3}}
\@writefile{toc}{\contentsline {section}{\numberline {A.4}Kernel Headers}{2}{section.A.4}}
\@writefile{toc}{\contentsline {section}{\numberline {A.5}Compiling Samples}{2}{section.A.5}}
\gdef \@lastoftotalpage{0}
