\relax 
\providecommand\hyper@newdestlabel[2]{}
\providecommand\HyperFirstAtBeginDocument{\AtBeginDocument}
\HyperFirstAtBeginDocument{\ifx\hyper@anchor\@undefined
\global\let\oldcontentsline\contentsline
\gdef\contentsline#1#2#3#4{\oldcontentsline{#1}{#2}{#3}}
\global\let\oldnewlabel\newlabel
\gdef\newlabel#1#2{\newlabelxx{#1}#2}
\gdef\newlabelxx#1#2#3#4#5#6{\oldnewlabel{#1}{{#2}{#3}}}
\AtEndDocument{\ifx\hyper@anchor\@undefined
\let\contentsline\oldcontentsline
\let\newlabel\oldnewlabel
\fi}
\fi}
\global\let\hyper@last\relax 
\gdef\HyperFirstAtBeginDocument#1{#1}
\providecommand*\HyPL@Entry[1]{}
\citation{wei2005tocttou}
\HyPL@Entry{0<</S/D>>}
\@writefile{toc}{\contentsline {chapter}{\numberline {Chapter 1}Related Work}{1}{chapter.1}}
\@writefile{lof}{\addvspace {10\p@ }}
\@writefile{lot}{\addvspace {10\p@ }}
\newlabel{sec:relatedwork-chap}{{1}{1}{Related Work}{chapter.1}{}}
\@writefile{toc}{\contentsline {section}{\numberline {1.1}seccomp}{1}{section.1.1}}
\newlabel{sec:relatedwork-seccomp}{{1.1}{1}{seccomp}{section.1.1}{}}
\citation{sara}
\@writefile{toc}{\contentsline {section}{\numberline {1.2}Landlock}{2}{section.1.2}}
\newlabel{sec:relatedwork-landlock}{{1.2}{2}{Landlock}{section.1.2}{}}
\citation{tianlbm}
\citation{ahmed2018inkev}
\citation{morris2002linux}
\citation{sailer2004design}
\citation{heuser2014asm}
\citation{vahldiek2015guardat}
\@writefile{toc}{\contentsline {section}{\numberline {1.3}S.A.R.A}{3}{section.1.3}}
\newlabel{sec:relatedwork-sara}{{1.3}{3}{S.A.R.A}{section.1.3}{}}
\@writefile{toc}{\contentsline {section}{\numberline {1.4}Other related work based on LSM framework and dynamic tracing}{3}{section.1.4}}
\gdef \@lastoftotalpage{0}
