\relax 
\providecommand\hyper@newdestlabel[2]{}
\providecommand\HyperFirstAtBeginDocument{\AtBeginDocument}
\HyperFirstAtBeginDocument{\ifx\hyper@anchor\@undefined
\global\let\oldcontentsline\contentsline
\gdef\contentsline#1#2#3#4{\oldcontentsline{#1}{#2}{#3}}
\global\let\oldnewlabel\newlabel
\gdef\newlabel#1#2{\newlabelxx{#1}#2}
\gdef\newlabelxx#1#2#3#4#5#6{\oldnewlabel{#1}{{#2}{#3}}}
\AtEndDocument{\ifx\hyper@anchor\@undefined
\let\contentsline\oldcontentsline
\let\newlabel\oldnewlabel
\fi}
\fi}
\global\let\hyper@last\relax 
\gdef\HyperFirstAtBeginDocument#1{#1}
\providecommand*\HyPL@Entry[1]{}
\citation{morris2002linux}
\citation{mccanne1993bsd}
\citation{acl}
\citation{mac}
\HyPL@Entry{0<</S/D>>}
\@writefile{toc}{\contentsline {chapter}{\numberline {Chapter 1}Background}{1}{chapter.1}}
\@writefile{lof}{\addvspace {10\p@ }}
\@writefile{lot}{\addvspace {10\p@ }}
\newlabel{sec:background-chap}{{1}{1}{Background}{chapter.1}{}}
\@writefile{toc}{\contentsline {section}{\numberline {1.1}Traditional Access Control Model}{1}{section.1.1}}
\@writefile{toc}{\contentsline {subsection}{\numberline {1.1.1}ACL}{1}{subsection.1.1.1}}
\@writefile{toc}{\contentsline {subsection}{\numberline {1.1.2}Capability}{1}{subsection.1.1.2}}
\citation{nakamura}
\citation{national1987guide}
\citation{downs1985issues}
\citation{mao2009trojan}
\citation{latham1986department}
\citation{ferraiolo1995role}
\@writefile{toc}{\contentsline {section}{\numberline {1.2}Nowadays Access Control Model}{2}{section.1.2}}
\@writefile{toc}{\contentsline {subsection}{\numberline {1.2.1}MAC}{2}{subsection.1.2.1}}
\@writefile{toc}{\contentsline {subsection}{\numberline {1.2.2}DAC}{2}{subsection.1.2.2}}
\@writefile{toc}{\contentsline {subsection}{\numberline {1.2.3}RBAC}{3}{subsection.1.2.3}}
\@writefile{lof}{\contentsline {figure}{\numberline {1.1}{\ignorespaces Role-based Access Control\relax }}{3}{figure.caption.1}}
\providecommand*\caption@xref[2]{\@setref\relax\@undefined{#1}}
\newlabel{fig:rbac}{{1.1}{3}{Role-based Access Control\relax }{figure.caption.1}{}}
\citation{selinux}
\citation{morris2002linux}
\citation{wright2002kroahhartman}
\citation{loadable}
\@writefile{toc}{\contentsline {section}{\numberline {1.3}LSM}{4}{section.1.3}}
\citation{smalley2002configuring}
\@writefile{lof}{\contentsline {figure}{\numberline {1.2}{\ignorespaces LSM work mechanism\relax }}{5}{figure.caption.2}}
\newlabel{fig:lsm}{{1.2}{5}{LSM work mechanism\relax }{figure.caption.2}{}}
\@writefile{toc}{\contentsline {subsection}{\numberline {1.3.1}SELinux}{5}{subsection.1.3.1}}
\@writefile{toc}{\contentsline {subsection}{\numberline {1.3.2}AppArmor}{6}{subsection.1.3.2}}
\citation{mccanne1993bsd}
\citation{peter2001integrating}
\@writefile{toc}{\contentsline {subsection}{\numberline {1.3.3}yama}{7}{subsection.1.3.3}}
\@writefile{toc}{\contentsline {section}{\numberline {1.4}BPF}{7}{section.1.4}}
\@writefile{toc}{\contentsline {subsection}{\numberline {1.4.1}Traditional BPF design}{8}{subsection.1.4.1}}
\@writefile{lof}{\contentsline {figure}{\numberline {1.3}{\ignorespaces tcpdump workflow\relax }}{8}{figure.caption.3}}
\newlabel{fig:tcpdump_workflow}{{1.3}{8}{tcpdump workflow\relax }{figure.caption.3}{}}
\citation{baldi2005framework}
\@writefile{lot}{\contentsline {table}{\numberline {1.1}{\ignorespaces Instruction set of cBPF\relax }}{10}{table.caption.4}}
\newlabel{tab:bpf-instruction-set}{{1.1}{10}{Instruction set of cBPF\relax }{table.caption.4}{}}
\@writefile{toc}{\contentsline {subsection}{\numberline {1.4.2}JIT compiler for BPF}{10}{subsection.1.4.2}}
\@writefile{lot}{\contentsline {table}{\numberline {1.2}{\ignorespaces Architecture that support BPF JIT compilation\relax }}{11}{table.caption.5}}
\newlabel{tab:bpf-jit-compile}{{1.2}{11}{Architecture that support BPF JIT compilation\relax }{table.caption.5}{}}
\@writefile{toc}{\contentsline {subsection}{\numberline {1.4.3}Interacting with user space:map}{11}{subsection.1.4.3}}
\@writefile{lof}{\contentsline {figure}{\numberline {1.4}{\ignorespaces BPF Map Mechanism\relax }}{11}{figure.caption.6}}
\newlabel{fig:bpf_map}{{1.4}{11}{BPF Map Mechanism\relax }{figure.caption.6}{}}
\citation{sockex1}
\citation{seccomp}
\@writefile{toc}{\contentsline {subsection}{\numberline {1.4.4}Verifier}{12}{subsection.1.4.4}}
\citation{bcc}
\@writefile{toc}{\contentsline {subsection}{\numberline {1.4.5}BCC: BPF compiler collection}{13}{subsection.1.4.5}}
\@writefile{toc}{\contentsline {subsection}{\numberline {1.4.6}BPF work mechanism}{14}{subsection.1.4.6}}
\@writefile{lof}{\contentsline {figure}{\numberline {1.5}{\ignorespaces BPF mechanism\relax }}{14}{figure.caption.7}}
\newlabel{fig:bpf_mechanism}{{1.5}{14}{BPF mechanism\relax }{figure.caption.7}{}}
\gdef \@lastoftotalpage{0}
