\relax 
\providecommand\hyper@newdestlabel[2]{}
\providecommand\HyperFirstAtBeginDocument{\AtBeginDocument}
\HyperFirstAtBeginDocument{\ifx\hyper@anchor\@undefined
\global\let\oldcontentsline\contentsline
\gdef\contentsline#1#2#3#4{\oldcontentsline{#1}{#2}{#3}}
\global\let\oldnewlabel\newlabel
\gdef\newlabel#1#2{\newlabelxx{#1}#2}
\gdef\newlabelxx#1#2#3#4#5#6{\oldnewlabel{#1}{{#2}{#3}}}
\AtEndDocument{\ifx\hyper@anchor\@undefined
\let\contentsline\oldcontentsline
\let\newlabel\oldnewlabel
\fi}
\fi}
\global\let\hyper@last\relax 
\gdef\HyperFirstAtBeginDocument#1{#1}
\providecommand*\HyPL@Entry[1]{}
\citation{xattracl}
\HyPL@Entry{0<</S/D>>}
\@writefile{toc}{\contentsline {chapter}{\numberline {Chapter 1}Implementation}{1}{chapter.1}}
\@writefile{lof}{\addvspace {10\p@ }}
\@writefile{lot}{\addvspace {10\p@ }}
\newlabel{sec:implementation-chap}{{1}{1}{Implementation}{chapter.1}{}}
\@writefile{toc}{\contentsline {section}{\numberline {1.1}User level implementation}{1}{section.1.1}}
\newlabel{listing:file-attribute-assignment}{{1.1}{1}{file attributes assignments in user level}{lstlisting.1.1}{}}
\@writefile{lol}{\contentsline {lstlisting}{\numberline {1.1}file attributes assignments in user level}{1}{lstlisting.1.1}}
\citation{allen1970control}
\newlabel{listing:policy-sample}{{1.2}{2}{user defined security policy sample}{lstlisting.1.2}{}}
\@writefile{lol}{\contentsline {lstlisting}{\numberline {1.2}user defined security policy sample}{2}{lstlisting.1.2}}
\newlabel{listing:bpf-verifier-ops}{{1.3}{2}{eBPF verifier operation}{lstlisting.1.3}{}}
\@writefile{lol}{\contentsline {lstlisting}{\numberline {1.3}eBPF verifier operation}{2}{lstlisting.1.3}}
\@writefile{toc}{\contentsline {section}{\numberline {1.2}Kernel level implementation}{2}{section.1.2}}
\@writefile{toc}{\contentsline {subsection}{\numberline {1.2.1}Attribute Setting}{3}{subsection.1.2.1}}
\newlabel{listing:design-task-security}{{1.4}{3}{struct task\_security}{lstlisting.1.4}{}}
\@writefile{lol}{\contentsline {lstlisting}{\numberline {1.4}struct task\_security}{3}{lstlisting.1.4}}
\newlabel{listing:implement-task-initial}{{1.5}{3}{task attribute initialization}{lstlisting.1.5}{}}
\@writefile{lol}{\contentsline {lstlisting}{\numberline {1.5}task attribute initialization}{3}{lstlisting.1.5}}
\@writefile{toc}{\contentsline {subsection}{\numberline {1.2.2}Extract Attribute Information}{4}{subsection.1.2.2}}
\citation{mccanne1993bsd}
\citation{usexattr}
\newlabel{listing:design-struct-cred}{{1.6}{5}{struct cred}{lstlisting.1.6}{}}
\@writefile{lol}{\contentsline {lstlisting}{\numberline {1.6}struct cred}{5}{lstlisting.1.6}}
\newlabel{listing:file-attribute-extract}{{1.7}{5}{file attribute extraction code}{lstlisting.1.7}{}}
\@writefile{lol}{\contentsline {lstlisting}{\numberline {1.7}file attribute extraction code}{5}{lstlisting.1.7}}
\@writefile{toc}{\contentsline {subsection}{\numberline {1.2.3}Transmit Attribute Information}{6}{subsection.1.2.3}}
\newlabel{listing:security-content}{{1.8}{6}{security content}{lstlisting.1.8}{}}
\@writefile{lol}{\contentsline {lstlisting}{\numberline {1.8}security content}{6}{lstlisting.1.8}}
\newlabel{listing:implement-hook-example}{{1.9}{6}{hook function used by BPF\_LSM}{lstlisting.1.9}{}}
\@writefile{lol}{\contentsline {lstlisting}{\numberline {1.9}hook function used by BPF\_LSM}{6}{lstlisting.1.9}}
\@writefile{toc}{\contentsline {subsection}{\numberline {1.2.4}Decision Making}{7}{subsection.1.2.4}}
\newlabel{listing:bpf-attach}{{1.10}{7}{eBPF program attachment}{lstlisting.1.10}{}}
\@writefile{lol}{\contentsline {lstlisting}{\numberline {1.10}eBPF program attachment}{7}{lstlisting.1.10}}
\gdef \@lastoftotalpage{0}
