\BOOKMARK [0][-]{chapter.1}{Background}{}% 1
\BOOKMARK [1][-]{section.1.1}{Traditional Access Control Model}{chapter.1}% 2
\BOOKMARK [1][-]{section.1.2}{Nowadays Access Control Model}{chapter.1}% 3
\BOOKMARK [1][-]{section.1.3}{LSM}{chapter.1}% 4
\BOOKMARK [1][-]{section.1.4}{BPF}{chapter.1}% 5
